; RUN: llc < %s -mtriple=x86_64-apple-darwin -march=x86 -mcpu=core-avx2 -mattr=avx2 | FileCheck %s

define <16 x i16> @test_x86_avx2_packssdw(<8 x i32> %a0, <8 x i32> %a1) {
  ; CHECK: vpackssdw
  %res = call <16 x i16> @llvm.x86.avx2.packssdw(<8 x i32> %a0, <8 x i32> %a1) ; <<16 x i16>> [#uses=1]
  ret <16 x i16> %res
}
declare <16 x i16> @llvm.x86.avx2.packssdw(<8 x i32>, <8 x i32>) nounwind readnone


define <32 x i8> @test_x86_avx2_packsswb(<16 x i16> %a0, <16 x i16> %a1) {
  ; CHECK: vpacksswb
  %res = call <32 x i8> @llvm.x86.avx2.packsswb(<16 x i16> %a0, <16 x i16> %a1) ; <<32 x i8>> [#uses=1]
  ret <32 x i8> %res
}
declare <32 x i8> @llvm.x86.avx2.packsswb(<16 x i16>, <16 x i16>) nounwind readnone


define <32 x i8> @test_x86_avx2_packuswb(<16 x i16> %a0, <16 x i16> %a1) {
  ; CHECK: vpackuswb
  %res = call <32 x i8> @llvm.x86.avx2.packuswb(<16 x i16> %a0, <16 x i16> %a1) ; <<32 x i8>> [#uses=1]
  ret <32 x i8> %res
}
declare <32 x i8> @llvm.x86.avx2.packuswb(<16 x i16>, <16 x i16>) nounwind readnone


define <32 x i8> @test_x86_avx2_padds_b(<32 x i8> %a0, <32 x i8> %a1) {
  ; CHECK: vpaddsb
  %res = call <32 x i8> @llvm.x86.avx2.padds.b(<32 x i8> %a0, <32 x i8> %a1) ; <<32 x i8>> [#uses=1]
  ret <32 x i8> %res
}
declare <32 x i8> @llvm.x86.avx2.padds.b(<32 x i8>, <32 x i8>) nounwind readnone


define <16 x i16> @test_x86_avx2_padds_w(<16 x i16> %a0, <16 x i16> %a1) {
  ; CHECK: vpaddsw
  %res = call <16 x i16> @llvm.x86.avx2.padds.w(<16 x i16> %a0, <16 x i16> %a1) ; <<16 x i16>> [#uses=1]
  ret <16 x i16> %res
}
declare <16 x i16> @llvm.x86.avx2.padds.w(<16 x i16>, <16 x i16>) nounwind readnone


define <32 x i8> @test_x86_avx2_paddus_b(<32 x i8> %a0, <32 x i8> %a1) {
  ; CHECK: vpaddusb
  %res = call <32 x i8> @llvm.x86.avx2.paddus.b(<32 x i8> %a0, <32 x i8> %a1) ; <<32 x i8>> [#uses=1]
  ret <32 x i8> %res
}
declare <32 x i8> @llvm.x86.avx2.paddus.b(<32 x i8>, <32 x i8>) nounwind readnone


define <16 x i16> @test_x86_avx2_paddus_w(<16 x i16> %a0, <16 x i16> %a1) {
  ; CHECK: vpaddusw
  %res = call <16 x i16> @llvm.x86.avx2.paddus.w(<16 x i16> %a0, <16 x i16> %a1) ; <<16 x i16>> [#uses=1]
  ret <16 x i16> %res
}
declare <16 x i16> @llvm.x86.avx2.paddus.w(<16 x i16>, <16 x i16>) nounwind readnone


define <32 x i8> @test_x86_avx2_pavg_b(<32 x i8> %a0, <32 x i8> %a1) {
  ; CHECK: vpavgb
  %res = call <32 x i8> @llvm.x86.avx2.pavg.b(<32 x i8> %a0, <32 x i8> %a1) ; <<32 x i8>> [#uses=1]
  ret <32 x i8> %res
}
declare <32 x i8> @llvm.x86.avx2.pavg.b(<32 x i8>, <32 x i8>) nounwind readnone


define <16 x i16> @test_x86_avx2_pavg_w(<16 x i16> %a0, <16 x i16> %a1) {
  ; CHECK: vpavgw
  %res = call <16 x i16> @llvm.x86.avx2.pavg.w(<16 x i16> %a0, <16 x i16> %a1) ; <<16 x i16>> [#uses=1]
  ret <16 x i16> %res
}
declare <16 x i16> @llvm.x86.avx2.pavg.w(<16 x i16>, <16 x i16>) nounwind readnone


define <8 x i32> @test_x86_avx2_pmadd_wd(<16 x i16> %a0, <16 x i16> %a1) {
  ; CHECK: vpmaddwd
  %res = call <8 x i32> @llvm.x86.avx2.pmadd.wd(<16 x i16> %a0, <16 x i16> %a1) ; <<8 x i32>> [#uses=1]
  ret <8 x i32> %res
}
declare <8 x i32> @llvm.x86.avx2.pmadd.wd(<16 x i16>, <16 x i16>) nounwind readnone


define <16 x i16> @test_x86_avx2_pmaxs_w(<16 x i16> %a0, <16 x i16> %a1) {
  ; CHECK: vpmaxsw
  %res = call <16 x i16> @llvm.x86.avx2.pmaxs.w(<16 x i16> %a0, <16 x i16> %a1) ; <<16 x i16>> [#uses=1]
  ret <16 x i16> %res
}
declare <16 x i16> @llvm.x86.avx2.pmaxs.w(<16 x i16>, <16 x i16>) nounwind readnone


define <32 x i8> @test_x86_avx2_pmaxu_b(<32 x i8> %a0, <32 x i8> %a1) {
  ; CHECK: vpmaxub
  %res = call <32 x i8> @llvm.x86.avx2.pmaxu.b(<32 x i8> %a0, <32 x i8> %a1) ; <<32 x i8>> [#uses=1]
  ret <32 x i8> %res
}
declare <32 x i8> @llvm.x86.avx2.pmaxu.b(<32 x i8>, <32 x i8>) nounwind readnone


define <16 x i16> @test_x86_avx2_pmins_w(<16 x i16> %a0, <16 x i16> %a1) {
  ; CHECK: vpminsw
  %res = call <16 x i16> @llvm.x86.avx2.pmins.w(<16 x i16> %a0, <16 x i16> %a1) ; <<16 x i16>> [#uses=1]
  ret <16 x i16> %res
}
declare <16 x i16> @llvm.x86.avx2.pmins.w(<16 x i16>, <16 x i16>) nounwind readnone


define <32 x i8> @test_x86_avx2_pminu_b(<32 x i8> %a0, <32 x i8> %a1) {
  ; CHECK: vpminub
  %res = call <32 x i8> @llvm.x86.avx2.pminu.b(<32 x i8> %a0, <32 x i8> %a1) ; <<32 x i8>> [#uses=1]
  ret <32 x i8> %res
}
declare <32 x i8> @llvm.x86.avx2.pminu.b(<32 x i8>, <32 x i8>) nounwind readnone


define i32 @test_x86_avx2_pmovmskb(<32 x i8> %a0) {
  ; CHECK: vpmovmskb
  %res = call i32 @llvm.x86.avx2.pmovmskb(<32 x i8> %a0) ; <i32> [#uses=1]
  ret i32 %res
}
declare i32 @llvm.x86.avx2.pmovmskb(<32 x i8>) nounwind readnone


define <16 x i16> @test_x86_avx2_pmulh_w(<16 x i16> %a0, <16 x i16> %a1) {
  ; CHECK: vpmulhw
  %res = call <16 x i16> @llvm.x86.avx2.pmulh.w(<16 x i16> %a0, <16 x i16> %a1) ; <<16 x i16>> [#uses=1]
  ret <16 x i16> %res
}
declare <16 x i16> @llvm.x86.avx2.pmulh.w(<16 x i16>, <16 x i16>) nounwind readnone


define <16 x i16> @test_x86_avx2_pmulhu_w(<16 x i16> %a0, <16 x i16> %a1) {
  ; CHECK: vpmulhuw
  %res = call <16 x i16> @llvm.x86.avx2.pmulhu.w(<16 x i16> %a0, <16 x i16> %a1) ; <<16 x i16>> [#uses=1]
  ret <16 x i16> %res
}
declare <16 x i16> @llvm.x86.avx2.pmulhu.w(<16 x i16>, <16 x i16>) nounwind readnone


define <4 x i64> @test_x86_avx2_pmulu_dq(<8 x i32> %a0, <8 x i32> %a1) {
  ; CHECK: vpmuludq
  %res = call <4 x i64> @llvm.x86.avx2.pmulu.dq(<8 x i32> %a0, <8 x i32> %a1) ; <<4 x i64>> [#uses=1]
  ret <4 x i64> %res
}
declare <4 x i64> @llvm.x86.avx2.pmulu.dq(<8 x i32>, <8 x i32>) nounwind readnone


define <4 x i64> @test_x86_avx2_psad_bw(<32 x i8> %a0, <32 x i8> %a1) {
  ; CHECK: vpsadbw
  %res = call <4 x i64> @llvm.x86.avx2.psad.bw(<32 x i8> %a0, <32 x i8> %a1) ; <<4 x i64>> [#uses=1]
  ret <4 x i64> %res
}
declare <4 x i64> @llvm.x86.avx2.psad.bw(<32 x i8>, <32 x i8>) nounwind readnone


define <8 x i32> @test_x86_avx2_psll_d(<8 x i32> %a0, <4 x i32> %a1) {
  ; CHECK: vpslld
  %res = call <8 x i32> @llvm.x86.avx2.psll.d(<8 x i32> %a0, <4 x i32> %a1) ; <<8 x i32>> [#uses=1]
  ret <8 x i32> %res
}
declare <8 x i32> @llvm.x86.avx2.psll.d(<8 x i32>, <4 x i32>) nounwind readnone


define <4 x i64> @test_x86_avx2_psll_dq(<4 x i64> %a0) {
  ; CHECK: vpslldq
  %res = call <4 x i64> @llvm.x86.avx2.psll.dq(<4 x i64> %a0, i32 7) ; <<4 x i64>> [#uses=1]
  ret <4 x i64> %res
}
declare <4 x i64> @llvm.x86.avx2.psll.dq(<4 x i64>, i32) nounwind readnone


define <4 x i64> @test_x86_avx2_psll_dq_bs(<4 x i64> %a0) {
  ; CHECK: vpslldq
  %res = call <4 x i64> @llvm.x86.avx2.psll.dq.bs(<4 x i64> %a0, i32 7) ; <<4 x i64>> [#uses=1]
  ret <4 x i64> %res
}
declare <4 x i64> @llvm.x86.avx2.psll.dq.bs(<4 x i64>, i32) nounwind readnone


define <4 x i64> @test_x86_avx2_psll_q(<4 x i64> %a0, <2 x i64> %a1) {
  ; CHECK: vpsllq
  %res = call <4 x i64> @llvm.x86.avx2.psll.q(<4 x i64> %a0, <2 x i64> %a1) ; <<4 x i64>> [#uses=1]
  ret <4 x i64> %res
}
declare <4 x i64> @llvm.x86.avx2.psll.q(<4 x i64>, <2 x i64>) nounwind readnone


define <16 x i16> @test_x86_avx2_psll_w(<16 x i16> %a0, <8 x i16> %a1) {
  ; CHECK: vpsllw
  %res = call <16 x i16> @llvm.x86.avx2.psll.w(<16 x i16> %a0, <8 x i16> %a1) ; <<16 x i16>> [#uses=1]
  ret <16 x i16> %res
}
declare <16 x i16> @llvm.x86.avx2.psll.w(<16 x i16>, <8 x i16>) nounwind readnone


define <8 x i32> @test_x86_avx2_pslli_d(<8 x i32> %a0) {
  ; CHECK: vpslld
  %res = call <8 x i32> @llvm.x86.avx2.pslli.d(<8 x i32> %a0, i32 7) ; <<8 x i32>> [#uses=1]
  ret <8 x i32> %res
}
declare <8 x i32> @llvm.x86.avx2.pslli.d(<8 x i32>, i32) nounwind readnone


define <4 x i64> @test_x86_avx2_pslli_q(<4 x i64> %a0) {
  ; CHECK: vpsllq
  %res = call <4 x i64> @llvm.x86.avx2.pslli.q(<4 x i64> %a0, i32 7) ; <<4 x i64>> [#uses=1]
  ret <4 x i64> %res
}
declare <4 x i64> @llvm.x86.avx2.pslli.q(<4 x i64>, i32) nounwind readnone


define <16 x i16> @test_x86_avx2_pslli_w(<16 x i16> %a0) {
  ; CHECK: vpsllw
  %res = call <16 x i16> @llvm.x86.avx2.pslli.w(<16 x i16> %a0, i32 7) ; <<16 x i16>> [#uses=1]
  ret <16 x i16> %res
}
declare <16 x i16> @llvm.x86.avx2.pslli.w(<16 x i16>, i32) nounwind readnone


define <8 x i32> @test_x86_avx2_psra_d(<8 x i32> %a0, <4 x i32> %a1) {
  ; CHECK: vpsrad
  %res = call <8 x i32> @llvm.x86.avx2.psra.d(<8 x i32> %a0, <4 x i32> %a1) ; <<8 x i32>> [#uses=1]
  ret <8 x i32> %res
}
declare <8 x i32> @llvm.x86.avx2.psra.d(<8 x i32>, <4 x i32>) nounwind readnone


define <16 x i16> @test_x86_avx2_psra_w(<16 x i16> %a0, <8 x i16> %a1) {
  ; CHECK: vpsraw
  %res = call <16 x i16> @llvm.x86.avx2.psra.w(<16 x i16> %a0, <8 x i16> %a1) ; <<16 x i16>> [#uses=1]
  ret <16 x i16> %res
}
declare <16 x i16> @llvm.x86.avx2.psra.w(<16 x i16>, <8 x i16>) nounwind readnone


define <8 x i32> @test_x86_avx2_psrai_d(<8 x i32> %a0) {
  ; CHECK: vpsrad
  %res = call <8 x i32> @llvm.x86.avx2.psrai.d(<8 x i32> %a0, i32 7) ; <<8 x i32>> [#uses=1]
  ret <8 x i32> %res
}
declare <8 x i32> @llvm.x86.avx2.psrai.d(<8 x i32>, i32) nounwind readnone


define <16 x i16> @test_x86_avx2_psrai_w(<16 x i16> %a0) {
  ; CHECK: vpsraw
  %res = call <16 x i16> @llvm.x86.avx2.psrai.w(<16 x i16> %a0, i32 7) ; <<16 x i16>> [#uses=1]
  ret <16 x i16> %res
}
declare <16 x i16> @llvm.x86.avx2.psrai.w(<16 x i16>, i32) nounwind readnone


define <8 x i32> @test_x86_avx2_psrl_d(<8 x i32> %a0, <4 x i32> %a1) {
  ; CHECK: vpsrld
  %res = call <8 x i32> @llvm.x86.avx2.psrl.d(<8 x i32> %a0, <4 x i32> %a1) ; <<8 x i32>> [#uses=1]
  ret <8 x i32> %res
}
declare <8 x i32> @llvm.x86.avx2.psrl.d(<8 x i32>, <4 x i32>) nounwind readnone


define <4 x i64> @test_x86_avx2_psrl_dq(<4 x i64> %a0) {
  ; CHECK: vpsrldq
  %res = call <4 x i64> @llvm.x86.avx2.psrl.dq(<4 x i64> %a0, i32 7) ; <<4 x i64>> [#uses=1]
  ret <4 x i64> %res
}
declare <4 x i64> @llvm.x86.avx2.psrl.dq(<4 x i64>, i32) nounwind readnone


define <4 x i64> @test_x86_avx2_psrl_dq_bs(<4 x i64> %a0) {
  ; CHECK: vpsrldq
  %res = call <4 x i64> @llvm.x86.avx2.psrl.dq.bs(<4 x i64> %a0, i32 7) ; <<4 x i64>> [#uses=1]
  ret <4 x i64> %res
}
declare <4 x i64> @llvm.x86.avx2.psrl.dq.bs(<4 x i64>, i32) nounwind readnone


define <4 x i64> @test_x86_avx2_psrl_q(<4 x i64> %a0, <2 x i64> %a1) {
  ; CHECK: vpsrlq
  %res = call <4 x i64> @llvm.x86.avx2.psrl.q(<4 x i64> %a0, <2 x i64> %a1) ; <<4 x i64>> [#uses=1]
  ret <4 x i64> %res
}
declare <4 x i64> @llvm.x86.avx2.psrl.q(<4 x i64>, <2 x i64>) nounwind readnone


define <16 x i16> @test_x86_avx2_psrl_w(<16 x i16> %a0, <8 x i16> %a1) {
  ; CHECK: vpsrlw
  %res = call <16 x i16> @llvm.x86.avx2.psrl.w(<16 x i16> %a0, <8 x i16> %a1) ; <<16 x i16>> [#uses=1]
  ret <16 x i16> %res
}
declare <16 x i16> @llvm.x86.avx2.psrl.w(<16 x i16>, <8 x i16>) nounwind readnone


define <8 x i32> @test_x86_avx2_psrli_d(<8 x i32> %a0) {
  ; CHECK: vpsrld
  %res = call <8 x i32> @llvm.x86.avx2.psrli.d(<8 x i32> %a0, i32 7) ; <<8 x i32>> [#uses=1]
  ret <8 x i32> %res
}
declare <8 x i32> @llvm.x86.avx2.psrli.d(<8 x i32>, i32) nounwind readnone


define <4 x i64> @test_x86_avx2_psrli_q(<4 x i64> %a0) {
  ; CHECK: vpsrlq
  %res = call <4 x i64> @llvm.x86.avx2.psrli.q(<4 x i64> %a0, i32 7) ; <<4 x i64>> [#uses=1]
  ret <4 x i64> %res
}
declare <4 x i64> @llvm.x86.avx2.psrli.q(<4 x i64>, i32) nounwind readnone


define <16 x i16> @test_x86_avx2_psrli_w(<16 x i16> %a0) {
  ; CHECK: vpsrlw
  %res = call <16 x i16> @llvm.x86.avx2.psrli.w(<16 x i16> %a0, i32 7) ; <<16 x i16>> [#uses=1]
  ret <16 x i16> %res
}
declare <16 x i16> @llvm.x86.avx2.psrli.w(<16 x i16>, i32) nounwind readnone


define <32 x i8> @test_x86_avx2_psubs_b(<32 x i8> %a0, <32 x i8> %a1) {
  ; CHECK: vpsubsb
  %res = call <32 x i8> @llvm.x86.avx2.psubs.b(<32 x i8> %a0, <32 x i8> %a1) ; <<32 x i8>> [#uses=1]
  ret <32 x i8> %res
}
declare <32 x i8> @llvm.x86.avx2.psubs.b(<32 x i8>, <32 x i8>) nounwind readnone


define <16 x i16> @test_x86_avx2_psubs_w(<16 x i16> %a0, <16 x i16> %a1) {
  ; CHECK: vpsubsw
  %res = call <16 x i16> @llvm.x86.avx2.psubs.w(<16 x i16> %a0, <16 x i16> %a1) ; <<16 x i16>> [#uses=1]
  ret <16 x i16> %res
}
declare <16 x i16> @llvm.x86.avx2.psubs.w(<16 x i16>, <16 x i16>) nounwind readnone


define <32 x i8> @test_x86_avx2_psubus_b(<32 x i8> %a0, <32 x i8> %a1) {
  ; CHECK: vpsubusb
  %res = call <32 x i8> @llvm.x86.avx2.psubus.b(<32 x i8> %a0, <32 x i8> %a1) ; <<32 x i8>> [#uses=1]
  ret <32 x i8> %res
}
declare <32 x i8> @llvm.x86.avx2.psubus.b(<32 x i8>, <32 x i8>) nounwind readnone


define <16 x i16> @test_x86_avx2_psubus_w(<16 x i16> %a0, <16 x i16> %a1) {
  ; CHECK: vpsubusw
  %res = call <16 x i16> @llvm.x86.avx2.psubus.w(<16 x i16> %a0, <16 x i16> %a1) ; <<16 x i16>> [#uses=1]
  ret <16 x i16> %res
}
declare <16 x i16> @llvm.x86.avx2.psubus.w(<16 x i16>, <16 x i16>) nounwind readnone


define <32 x i8> @test_x86_avx2_pabs_b(<32 x i8> %a0) {
  ; CHECK: vpabsb
  %res = call <32 x i8> @llvm.x86.avx2.pabs.b(<32 x i8> %a0) ; <<32 x i8>> [#uses=1]
  ret <32 x i8> %res
}
declare <32 x i8> @llvm.x86.avx2.pabs.b(<32 x i8>) nounwind readnone


define <8 x i32> @test_x86_avx2_pabs_d(<8 x i32> %a0) {
  ; CHECK: vpabsd
  %res = call <8 x i32> @llvm.x86.avx2.pabs.d(<8 x i32> %a0) ; <<8 x i32>> [#uses=1]
  ret <8 x i32> %res
}
declare <8 x i32> @llvm.x86.avx2.pabs.d(<8 x i32>) nounwind readnone


define <16 x i16> @test_x86_avx2_pabs_w(<16 x i16> %a0) {
  ; CHECK: vpabsw
  %res = call <16 x i16> @llvm.x86.avx2.pabs.w(<16 x i16> %a0) ; <<16 x i16>> [#uses=1]
  ret <16 x i16> %res
}
declare <16 x i16> @llvm.x86.avx2.pabs.w(<16 x i16>) nounwind readnone


define <8 x i32> @test_x86_avx2_phadd_d(<8 x i32> %a0, <8 x i32> %a1) {
  ; CHECK: vphaddd
  %res = call <8 x i32> @llvm.x86.avx2.phadd.d(<8 x i32> %a0, <8 x i32> %a1) ; <<8 x i32>> [#uses=1]
  ret <8 x i32> %res
}
declare <8 x i32> @llvm.x86.avx2.phadd.d(<8 x i32>, <8 x i32>) nounwind readnone


define <16 x i16> @test_x86_avx2_phadd_sw(<16 x i16> %a0, <16 x i16> %a1) {
  ; CHECK: vphaddsw
  %res = call <16 x i16> @llvm.x86.avx2.phadd.sw(<16 x i16> %a0, <16 x i16> %a1) ; <<16 x i16>> [#uses=1]
  ret <16 x i16> %res
}
declare <16 x i16> @llvm.x86.avx2.phadd.sw(<16 x i16>, <16 x i16>) nounwind readnone


define <16 x i16> @test_x86_avx2_phadd_w(<16 x i16> %a0, <16 x i16> %a1) {
  ; CHECK: vphaddw
  %res = call <16 x i16> @llvm.x86.avx2.phadd.w(<16 x i16> %a0, <16 x i16> %a1) ; <<16 x i16>> [#uses=1]
  ret <16 x i16> %res
}
declare <16 x i16> @llvm.x86.avx2.phadd.w(<16 x i16>, <16 x i16>) nounwind readnone


define <8 x i32> @test_x86_avx2_phsub_d(<8 x i32> %a0, <8 x i32> %a1) {
  ; CHECK: vphsubd
  %res = call <8 x i32> @llvm.x86.avx2.phsub.d(<8 x i32> %a0, <8 x i32> %a1) ; <<8 x i32>> [#uses=1]
  ret <8 x i32> %res
}
declare <8 x i32> @llvm.x86.avx2.phsub.d(<8 x i32>, <8 x i32>) nounwind readnone


define <16 x i16> @test_x86_avx2_phsub_sw(<16 x i16> %a0, <16 x i16> %a1) {
  ; CHECK: vphsubsw
  %res = call <16 x i16> @llvm.x86.avx2.phsub.sw(<16 x i16> %a0, <16 x i16> %a1) ; <<16 x i16>> [#uses=1]
  ret <16 x i16> %res
}
declare <16 x i16> @llvm.x86.avx2.phsub.sw(<16 x i16>, <16 x i16>) nounwind readnone


define <16 x i16> @test_x86_avx2_phsub_w(<16 x i16> %a0, <16 x i16> %a1) {
  ; CHECK: vphsubw
  %res = call <16 x i16> @llvm.x86.avx2.phsub.w(<16 x i16> %a0, <16 x i16> %a1) ; <<16 x i16>> [#uses=1]
  ret <16 x i16> %res
}
declare <16 x i16> @llvm.x86.avx2.phsub.w(<16 x i16>, <16 x i16>) nounwind readnone


define <16 x i16> @test_x86_avx2_pmadd_ub_sw(<32 x i8> %a0, <32 x i8> %a1) {
  ; CHECK: vpmaddubsw
  %res = call <16 x i16> @llvm.x86.avx2.pmadd.ub.sw(<32 x i8> %a0, <32 x i8> %a1) ; <<16 x i16>> [#uses=1]
  ret <16 x i16> %res
}
declare <16 x i16> @llvm.x86.avx2.pmadd.ub.sw(<32 x i8>, <32 x i8>) nounwind readnone


define <16 x i16> @test_x86_avx2_pmul_hr_sw(<16 x i16> %a0, <16 x i16> %a1) {
  ; CHECK: vpmulhrsw
  %res = call <16 x i16> @llvm.x86.avx2.pmul.hr.sw(<16 x i16> %a0, <16 x i16> %a1) ; <<16 x i16>> [#uses=1]
  ret <16 x i16> %res
}
declare <16 x i16> @llvm.x86.avx2.pmul.hr.sw(<16 x i16>, <16 x i16>) nounwind readnone


define <32 x i8> @test_x86_avx2_pshuf_b(<32 x i8> %a0, <32 x i8> %a1) {
  ; CHECK: vpshufb
  %res = call <32 x i8> @llvm.x86.avx2.pshuf.b(<32 x i8> %a0, <32 x i8> %a1) ; <<16 x i8>> [#uses=1]
  ret <32 x i8> %res
}
declare <32 x i8> @llvm.x86.avx2.pshuf.b(<32 x i8>, <32 x i8>) nounwind readnone


define <32 x i8> @test_x86_avx2_psign_b(<32 x i8> %a0, <32 x i8> %a1) {
  ; CHECK: vpsignb
  %res = call <32 x i8> @llvm.x86.avx2.psign.b(<32 x i8> %a0, <32 x i8> %a1) ; <<32 x i8>> [#uses=1]
  ret <32 x i8> %res
}
declare <32 x i8> @llvm.x86.avx2.psign.b(<32 x i8>, <32 x i8>) nounwind readnone


define <8 x i32> @test_x86_avx2_psign_d(<8 x i32> %a0, <8 x i32> %a1) {
  ; CHECK: vpsignd
  %res = call <8 x i32> @llvm.x86.avx2.psign.d(<8 x i32> %a0, <8 x i32> %a1) ; <<4 x i32>> [#uses=1]
  ret <8 x i32> %res
}
declare <8 x i32> @llvm.x86.avx2.psign.d(<8 x i32>, <8 x i32>) nounwind readnone


define <16 x i16> @test_x86_avx2_psign_w(<16 x i16> %a0, <16 x i16> %a1) {
  ; CHECK: vpsignw
  %res = call <16 x i16> @llvm.x86.avx2.psign.w(<16 x i16> %a0, <16 x i16> %a1) ; <<16 x i16>> [#uses=1]
  ret <16 x i16> %res
}
declare <16 x i16> @llvm.x86.avx2.psign.w(<16 x i16>, <16 x i16>) nounwind readnone


define <4 x i64> @test_x86_avx2_movntdqa(i8* %a0) {
  ; CHECK: movl
  ; CHECK: vmovntdqa
  %res = call <4 x i64> @llvm.x86.avx2.movntdqa(i8* %a0) ; <<4 x i64>> [#uses=1]
  ret <4 x i64> %res
}
declare <4 x i64> @llvm.x86.avx2.movntdqa(i8*) nounwind readonly


define <16 x i16> @test_x86_avx2_mpsadbw(<32 x i8> %a0, <32 x i8> %a1) {
  ; CHECK: vmpsadbw
  %res = call <16 x i16> @llvm.x86.avx2.mpsadbw(<32 x i8> %a0, <32 x i8> %a1, i32 7) ; <<16 x i16>> [#uses=1]
  ret <16 x i16> %res
}
declare <16 x i16> @llvm.x86.avx2.mpsadbw(<32 x i8>, <32 x i8>, i32) nounwind readnone


define <16 x i16> @test_x86_avx2_packusdw(<8 x i32> %a0, <8 x i32> %a1) {
  ; CHECK: vpackusdw
  %res = call <16 x i16> @llvm.x86.avx2.packusdw(<8 x i32> %a0, <8 x i32> %a1) ; <<16 x i16>> [#uses=1]
  ret <16 x i16> %res
}
declare <16 x i16> @llvm.x86.avx2.packusdw(<8 x i32>, <8 x i32>) nounwind readnone


define <32 x i8> @test_x86_avx2_pblendvb(<32 x i8> %a0, <32 x i8> %a1, <32 x i8> %a2) {
  ; CHECK: vpblendvb
  %res = call <32 x i8> @llvm.x86.avx2.pblendvb(<32 x i8> %a0, <32 x i8> %a1, <32 x i8> %a2) ; <<32 x i8>> [#uses=1]
  ret <32 x i8> %res
}
declare <32 x i8> @llvm.x86.avx2.pblendvb(<32 x i8>, <32 x i8>, <32 x i8>) nounwind readnone


define <16 x i16> @test_x86_avx2_pblendw(<16 x i16> %a0, <16 x i16> %a1) {
  ; CHECK: vpblendw
  %res = call <16 x i16> @llvm.x86.avx2.pblendw(<16 x i16> %a0, <16 x i16> %a1, i32 7) ; <<16 x i16>> [#uses=1]
  ret <16 x i16> %res
}
declare <16 x i16> @llvm.x86.avx2.pblendw(<16 x i16>, <16 x i16>, i32) nounwind readnone


define <32 x i8> @test_x86_avx2_pmaxsb(<32 x i8> %a0, <32 x i8> %a1) {
  ; CHECK: vpmaxsb
  %res = call <32 x i8> @llvm.x86.avx2.pmaxs.b(<32 x i8> %a0, <32 x i8> %a1) ; <<32 x i8>> [#uses=1]
  ret <32 x i8> %res
}
declare <32 x i8> @llvm.x86.avx2.pmaxs.b(<32 x i8>, <32 x i8>) nounwind readnone


define <8 x i32> @test_x86_avx2_pmaxsd(<8 x i32> %a0, <8 x i32> %a1) {
  ; CHECK: vpmaxsd
  %res = call <8 x i32> @llvm.x86.avx2.pmaxs.d(<8 x i32> %a0, <8 x i32> %a1) ; <<8 x i32>> [#uses=1]
  ret <8 x i32> %res
}
declare <8 x i32> @llvm.x86.avx2.pmaxs.d(<8 x i32>, <8 x i32>) nounwind readnone


define <8 x i32> @test_x86_avx2_pmaxud(<8 x i32> %a0, <8 x i32> %a1) {
  ; CHECK: vpmaxud
  %res = call <8 x i32> @llvm.x86.avx2.pmaxu.d(<8 x i32> %a0, <8 x i32> %a1) ; <<8 x i32>> [#uses=1]
  ret <8 x i32> %res
}
declare <8 x i32> @llvm.x86.avx2.pmaxu.d(<8 x i32>, <8 x i32>) nounwind readnone


define <16 x i16> @test_x86_avx2_pmaxuw(<16 x i16> %a0, <16 x i16> %a1) {
  ; CHECK: vpmaxuw
  %res = call <16 x i16> @llvm.x86.avx2.pmaxu.w(<16 x i16> %a0, <16 x i16> %a1) ; <<16 x i16>> [#uses=1]
  ret <16 x i16> %res
}
declare <16 x i16> @llvm.x86.avx2.pmaxu.w(<16 x i16>, <16 x i16>) nounwind readnone


define <32 x i8> @test_x86_avx2_pminsb(<32 x i8> %a0, <32 x i8> %a1) {
  ; CHECK: vpminsb
  %res = call <32 x i8> @llvm.x86.avx2.pmins.b(<32 x i8> %a0, <32 x i8> %a1) ; <<32 x i8>> [#uses=1]
  ret <32 x i8> %res
}
declare <32 x i8> @llvm.x86.avx2.pmins.b(<32 x i8>, <32 x i8>) nounwind readnone


define <8 x i32> @test_x86_avx2_pminsd(<8 x i32> %a0, <8 x i32> %a1) {
  ; CHECK: vpminsd
  %res = call <8 x i32> @llvm.x86.avx2.pmins.d(<8 x i32> %a0, <8 x i32> %a1) ; <<8 x i32>> [#uses=1]
  ret <8 x i32> %res
}
declare <8 x i32> @llvm.x86.avx2.pmins.d(<8 x i32>, <8 x i32>) nounwind readnone


define <8 x i32> @test_x86_avx2_pminud(<8 x i32> %a0, <8 x i32> %a1) {
  ; CHECK: vpminud
  %res = call <8 x i32> @llvm.x86.avx2.pminu.d(<8 x i32> %a0, <8 x i32> %a1) ; <<8 x i32>> [#uses=1]
  ret <8 x i32> %res
}
declare <8 x i32> @llvm.x86.avx2.pminu.d(<8 x i32>, <8 x i32>) nounwind readnone


define <16 x i16> @test_x86_avx2_pminuw(<16 x i16> %a0, <16 x i16> %a1) {
  ; CHECK: vpminuw
  %res = call <16 x i16> @llvm.x86.avx2.pminu.w(<16 x i16> %a0, <16 x i16> %a1) ; <<16 x i16>> [#uses=1]
  ret <16 x i16> %res
}
declare <16 x i16> @llvm.x86.avx2.pminu.w(<16 x i16>, <16 x i16>) nounwind readnone


define <8 x i32> @test_x86_avx2_pmovsxbd(<16 x i8> %a0) {
  ; CHECK: vpmovsxbd
  %res = call <8 x i32> @llvm.x86.avx2.pmovsxbd(<16 x i8> %a0) ; <<8 x i32>> [#uses=1]
  ret <8 x i32> %res
}
declare <8 x i32> @llvm.x86.avx2.pmovsxbd(<16 x i8>) nounwind readnone


define <4 x i64> @test_x86_avx2_pmovsxbq(<16 x i8> %a0) {
  ; CHECK: vpmovsxbq
  %res = call <4 x i64> @llvm.x86.avx2.pmovsxbq(<16 x i8> %a0) ; <<4 x i64>> [#uses=1]
  ret <4 x i64> %res
}
declare <4 x i64> @llvm.x86.avx2.pmovsxbq(<16 x i8>) nounwind readnone


define <16 x i16> @test_x86_avx2_pmovsxbw(<16 x i8> %a0) {
  ; CHECK: vpmovsxbw
  %res = call <16 x i16> @llvm.x86.avx2.pmovsxbw(<16 x i8> %a0) ; <<8 x i16>> [#uses=1]
  ret <16 x i16> %res
}
declare <16 x i16> @llvm.x86.avx2.pmovsxbw(<16 x i8>) nounwind readnone


define <4 x i64> @test_x86_avx2_pmovsxdq(<4 x i32> %a0) {
  ; CHECK: vpmovsxdq
  %res = call <4 x i64> @llvm.x86.avx2.pmovsxdq(<4 x i32> %a0) ; <<4 x i64>> [#uses=1]
  ret <4 x i64> %res
}
declare <4 x i64> @llvm.x86.avx2.pmovsxdq(<4 x i32>) nounwind readnone


define <8 x i32> @test_x86_avx2_pmovsxwd(<8 x i16> %a0) {
  ; CHECK: vpmovsxwd
  %res = call <8 x i32> @llvm.x86.avx2.pmovsxwd(<8 x i16> %a0) ; <<8 x i32>> [#uses=1]
  ret <8 x i32> %res
}
declare <8 x i32> @llvm.x86.avx2.pmovsxwd(<8 x i16>) nounwind readnone


define <4 x i64> @test_x86_avx2_pmovsxwq(<8 x i16> %a0) {
  ; CHECK: vpmovsxwq
  %res = call <4 x i64> @llvm.x86.avx2.pmovsxwq(<8 x i16> %a0) ; <<4 x i64>> [#uses=1]
  ret <4 x i64> %res
}
declare <4 x i64> @llvm.x86.avx2.pmovsxwq(<8 x i16>) nounwind readnone


define <8 x i32> @test_x86_avx2_pmovzxbd(<16 x i8> %a0) {
  ; CHECK: vpmovzxbd
  %res = call <8 x i32> @llvm.x86.avx2.pmovzxbd(<16 x i8> %a0) ; <<8 x i32>> [#uses=1]
  ret <8 x i32> %res
}
declare <8 x i32> @llvm.x86.avx2.pmovzxbd(<16 x i8>) nounwind readnone


define <4 x i64> @test_x86_avx2_pmovzxbq(<16 x i8> %a0) {
  ; CHECK: vpmovzxbq
  %res = call <4 x i64> @llvm.x86.avx2.pmovzxbq(<16 x i8> %a0) ; <<4 x i64>> [#uses=1]
  ret <4 x i64> %res
}
declare <4 x i64> @llvm.x86.avx2.pmovzxbq(<16 x i8>) nounwind readnone


define <16 x i16> @test_x86_avx2_pmovzxbw(<16 x i8> %a0) {
  ; CHECK: vpmovzxbw
  %res = call <16 x i16> @llvm.x86.avx2.pmovzxbw(<16 x i8> %a0) ; <<16 x i16>> [#uses=1]
  ret <16 x i16> %res
}
declare <16 x i16> @llvm.x86.avx2.pmovzxbw(<16 x i8>) nounwind readnone


define <4 x i64> @test_x86_avx2_pmovzxdq(<4 x i32> %a0) {
  ; CHECK: vpmovzxdq
  %res = call <4 x i64> @llvm.x86.avx2.pmovzxdq(<4 x i32> %a0) ; <<4 x i64>> [#uses=1]
  ret <4 x i64> %res
}
declare <4 x i64> @llvm.x86.avx2.pmovzxdq(<4 x i32>) nounwind readnone


define <8 x i32> @test_x86_avx2_pmovzxwd(<8 x i16> %a0) {
  ; CHECK: vpmovzxwd
  %res = call <8 x i32> @llvm.x86.avx2.pmovzxwd(<8 x i16> %a0) ; <<8 x i32>> [#uses=1]
  ret <8 x i32> %res
}
declare <8 x i32> @llvm.x86.avx2.pmovzxwd(<8 x i16>) nounwind readnone


define <4 x i64> @test_x86_avx2_pmovzxwq(<8 x i16> %a0) {
  ; CHECK: vpmovzxwq
  %res = call <4 x i64> @llvm.x86.avx2.pmovzxwq(<8 x i16> %a0) ; <<4 x i64>> [#uses=1]
  ret <4 x i64> %res
}
declare <4 x i64> @llvm.x86.avx2.pmovzxwq(<8 x i16>) nounwind readnone


define <4 x i64> @test_x86_avx2_pmul.dq(<8 x i32> %a0, <8 x i32> %a1) {
  ; CHECK: vpmuldq
  %res = call <4 x i64> @llvm.x86.avx2.pmul.dq(<8 x i32> %a0, <8 x i32> %a1) ; <<2 x i64>> [#uses=1]
  ret <4 x i64> %res
}
declare <4 x i64> @llvm.x86.avx2.pmul.dq(<8 x i32>, <8 x i32>) nounwind readnone


define <4 x i64> @test_x86_avx2_vbroadcasti128(i8* %a0) {
  ; CHECK: vbroadcasti128
  %res = call <4 x i64> @llvm.x86.avx2.vbroadcasti128(i8* %a0) ; <<4 x i64>> [#uses=1]
  ret <4 x i64> %res
}
declare <4 x i64> @llvm.x86.avx2.vbroadcasti128(i8*) nounwind readonly

define <4 x double> @test_x86_avx2_vbroadcast_sd_pd_256(<2 x double> %a0) {
  ; CHECK: vbroadcastsd
  %res = call <4 x double> @llvm.x86.avx2.vbroadcast.sd.pd.256(<2 x double> %a0) ; <<4 x double>> [#uses=1]
  ret <4 x double> %res
}
declare <4 x double> @llvm.x86.avx2.vbroadcast.sd.pd.256(<2 x double>) nounwind readonly


define <4 x float> @test_x86_avx2_vbroadcast_ss_ps(<4 x float> %a0) {
  ; CHECK: vbroadcastss
  %res = call <4 x float> @llvm.x86.avx2.vbroadcast.ss.ps(<4 x float> %a0) ; <<4 x float>> [#uses=1]
  ret <4 x float> %res
}
declare <4 x float> @llvm.x86.avx2.vbroadcast.ss.ps(<4 x float>) nounwind readonly


define <8 x float> @test_x86_avx2_vbroadcast_ss_ps_256(<4 x float> %a0) {
  ; CHECK: vbroadcastss
  %res = call <8 x float> @llvm.x86.avx2.vbroadcast.ss.ps.256(<4 x float> %a0) ; <<8 x float>> [#uses=1]
  ret <8 x float> %res
}
declare <8 x float> @llvm.x86.avx2.vbroadcast.ss.ps.256(<4 x float>) nounwind readonly


define <4 x i32> @test_x86_avx2_pblendd_128(<4 x i32> %a0, <4 x i32> %a1) {
  ; CHECK: vpblendd
  %res = call <4 x i32> @llvm.x86.avx2.pblendd.128(<4 x i32> %a0, <4 x i32> %a1, i32 7) ; <<4 x i32>> [#uses=1]
  ret <4 x i32> %res
}
declare <4 x i32> @llvm.x86.avx2.pblendd.128(<4 x i32>, <4 x i32>, i32) nounwind readnone


define <8 x i32> @test_x86_avx2_pblendd_256(<8 x i32> %a0, <8 x i32> %a1) {
  ; CHECK: vpblendd
  %res = call <8 x i32> @llvm.x86.avx2.pblendd.256(<8 x i32> %a0, <8 x i32> %a1, i32 7) ; <<8 x i32>> [#uses=1]
  ret <8 x i32> %res
}
declare <8 x i32> @llvm.x86.avx2.pblendd.256(<8 x i32>, <8 x i32>, i32) nounwind readnone


define <16 x i8> @test_x86_avx2_pbroadcastb_128(<16 x i8> %a0) {
  ; CHECK: vpbroadcastb
  %res = call <16 x i8> @llvm.x86.avx2.pbroadcastb.128(<16 x i8> %a0) ; <<16 x i8>> [#uses=1]
  ret <16 x i8> %res
}
declare <16 x i8> @llvm.x86.avx2.pbroadcastb.128(<16 x i8>) nounwind readonly


define <32 x i8> @test_x86_avx2_pbroadcastb_256(<16 x i8> %a0) {
  ; CHECK: vpbroadcastb
  %res = call <32 x i8> @llvm.x86.avx2.pbroadcastb.256(<16 x i8> %a0) ; <<32 x i8>> [#uses=1]
  ret <32 x i8> %res
}
declare <32 x i8> @llvm.x86.avx2.pbroadcastb.256(<16 x i8>) nounwind readonly


define <8 x i16> @test_x86_avx2_pbroadcastw_128(<8 x i16> %a0) {
  ; CHECK: vpbroadcastw
  %res = call <8 x i16> @llvm.x86.avx2.pbroadcastw.128(<8 x i16> %a0) ; <<8 x i16>> [#uses=1]
  ret <8 x i16> %res
}
declare <8 x i16> @llvm.x86.avx2.pbroadcastw.128(<8 x i16>) nounwind readonly


define <16 x i16> @test_x86_avx2_pbroadcastw_256(<8 x i16> %a0) {
  ; CHECK: vpbroadcastw
  %res = call <16 x i16> @llvm.x86.avx2.pbroadcastw.256(<8 x i16> %a0) ; <<16 x i16>> [#uses=1]
  ret <16 x i16> %res
}
declare <16 x i16> @llvm.x86.avx2.pbroadcastw.256(<8 x i16>) nounwind readonly


define <4 x i32> @test_x86_avx2_pbroadcastd_128(<4 x i32> %a0) {
  ; CHECK: vpbroadcastd
  %res = call <4 x i32> @llvm.x86.avx2.pbroadcastd.128(<4 x i32> %a0) ; <<4 x i32>> [#uses=1]
  ret <4 x i32> %res
}
declare <4 x i32> @llvm.x86.avx2.pbroadcastd.128(<4 x i32>) nounwind readonly


define <8 x i32> @test_x86_avx2_pbroadcastd_256(<4 x i32> %a0) {
  ; CHECK: vpbroadcastd
  %res = call <8 x i32> @llvm.x86.avx2.pbroadcastd.256(<4 x i32> %a0) ; <<8 x i32>> [#uses=1]
  ret <8 x i32> %res
}
declare <8 x i32> @llvm.x86.avx2.pbroadcastd.256(<4 x i32>) nounwind readonly


define <2 x i64> @test_x86_avx2_pbroadcastq_128(<2 x i64> %a0) {
  ; CHECK: vpbroadcastq
  %res = call <2 x i64> @llvm.x86.avx2.pbroadcastq.128(<2 x i64> %a0) ; <<2 x i64>> [#uses=1]
  ret <2 x i64> %res
}
declare <2 x i64> @llvm.x86.avx2.pbroadcastq.128(<2 x i64>) nounwind readonly


define <4 x i64> @test_x86_avx2_pbroadcastq_256(<2 x i64> %a0) {
  ; CHECK: vpbroadcastq
  %res = call <4 x i64> @llvm.x86.avx2.pbroadcastq.256(<2 x i64> %a0) ; <<4 x i64>> [#uses=1]
  ret <4 x i64> %res
}
declare <4 x i64> @llvm.x86.avx2.pbroadcastq.256(<2 x i64>) nounwind readonly


define <8 x i32> @test_x86_avx2_permd(<8 x i32> %a0, <8 x i32> %a1) {
  ; CHECK: vpermd
  %res = call <8 x i32> @llvm.x86.avx2.permd(<8 x i32> %a0, <8 x i32> %a1) ; <<8 x i32>> [#uses=1]
  ret <8 x i32> %res
}
declare <8 x i32> @llvm.x86.avx2.permd(<8 x i32>, <8 x i32>) nounwind readonly


define <8 x float> @test_x86_avx2_permps(<8 x float> %a0, <8 x float> %a1) {
  ; CHECK: vpermps
  %res = call <8 x float> @llvm.x86.avx2.permps(<8 x float> %a0, <8 x float> %a1) ; <<8 x float>> [#uses=1]
  ret <8 x float> %res
}
declare <8 x float> @llvm.x86.avx2.permps(<8 x float>, <8 x float>) nounwind readonly


define <4 x i64> @test_x86_avx2_vperm2i128(<4 x i64> %a0, <4 x i64> %a1) {
  ; CHECK: vperm2i128
  %res = call <4 x i64> @llvm.x86.avx2.vperm2i128(<4 x i64> %a0, <4 x i64> %a1, i8 1) ; <<4 x i64>> [#uses=1]
  ret <4 x i64> %res
}
declare <4 x i64> @llvm.x86.avx2.vperm2i128(<4 x i64>, <4 x i64>, i8) nounwind readonly


define <2 x i64> @test_x86_avx2_vextracti128(<4 x i64> %a0) {
  ; CHECK: vextracti128
  %res = call <2 x i64> @llvm.x86.avx2.vextracti128(<4 x i64> %a0, i8 7) ; <<2 x i64>> [#uses=1]
  ret <2 x i64> %res
}
declare <2 x i64> @llvm.x86.avx2.vextracti128(<4 x i64>, i8) nounwind readnone


define <4 x i64> @test_x86_avx2_vinserti128(<4 x i64> %a0, <2 x i64> %a1) {
  ; CHECK: vinserti128
  %res = call <4 x i64> @llvm.x86.avx2.vinserti128(<4 x i64> %a0, <2 x i64> %a1, i8 7) ; <<4 x i64>> [#uses=1]
  ret <4 x i64> %res
}
declare <4 x i64> @llvm.x86.avx2.vinserti128(<4 x i64>, <2 x i64>, i8) nounwind readnone


define <2 x i64> @test_x86_avx2_maskload_q(i8* %a0, <2 x i64> %a1) {
  ; CHECK: vpmaskmovq
  %res = call <2 x i64> @llvm.x86.avx2.maskload.q(i8* %a0, <2 x i64> %a1) ; <<2 x i64>> [#uses=1]
  ret <2 x i64> %res
}
declare <2 x i64> @llvm.x86.avx2.maskload.q(i8*, <2 x i64>) nounwind readonly


define <4 x i64> @test_x86_avx2_maskload_q_256(i8* %a0, <4 x i64> %a1) {
  ; CHECK: vpmaskmovq
  %res = call <4 x i64> @llvm.x86.avx2.maskload.q.256(i8* %a0, <4 x i64> %a1) ; <<4 x i64>> [#uses=1]
  ret <4 x i64> %res
}
declare <4 x i64> @llvm.x86.avx2.maskload.q.256(i8*, <4 x i64>) nounwind readonly


define <4 x i32> @test_x86_avx2_maskload_d(i8* %a0, <4 x i32> %a1) {
  ; CHECK: vpmaskmovd
  %res = call <4 x i32> @llvm.x86.avx2.maskload.d(i8* %a0, <4 x i32> %a1) ; <<4 x i32>> [#uses=1]
  ret <4 x i32> %res
}
declare <4 x i32> @llvm.x86.avx2.maskload.d(i8*, <4 x i32>) nounwind readonly


define <8 x i32> @test_x86_avx2_maskload_d_256(i8* %a0, <8 x i32> %a1) {
  ; CHECK: vpmaskmovd
  %res = call <8 x i32> @llvm.x86.avx2.maskload.d.256(i8* %a0, <8 x i32> %a1) ; <<8 x i32>> [#uses=1]
  ret <8 x i32> %res
}
declare <8 x i32> @llvm.x86.avx2.maskload.d.256(i8*, <8 x i32>) nounwind readonly


define void @test_x86_avx2_maskstore_q(i8* %a0, <2 x i64> %a1, <2 x i64> %a2) {
  ; CHECK: vpmaskmovq
  call void @llvm.x86.avx2.maskstore.q(i8* %a0, <2 x i64> %a1, <2 x i64> %a2)
  ret void
}
declare void @llvm.x86.avx2.maskstore.q(i8*, <2 x i64>, <2 x i64>) nounwind


define void @test_x86_avx2_maskstore_q_256(i8* %a0, <4 x i64> %a1, <4 x i64> %a2) {
  ; CHECK: vpmaskmovq
  call void @llvm.x86.avx2.maskstore.q.256(i8* %a0, <4 x i64> %a1, <4 x i64> %a2)
  ret void
}
declare void @llvm.x86.avx2.maskstore.q.256(i8*, <4 x i64>, <4 x i64>) nounwind


define void @test_x86_avx2_maskstore_d(i8* %a0, <4 x i32> %a1, <4 x i32> %a2) {
  ; CHECK: vpmaskmovd
  call void @llvm.x86.avx2.maskstore.d(i8* %a0, <4 x i32> %a1, <4 x i32> %a2)
  ret void
}
declare void @llvm.x86.avx2.maskstore.d(i8*, <4 x i32>, <4 x i32>) nounwind


define void @test_x86_avx2_maskstore_d_256(i8* %a0, <8 x i32> %a1, <8 x i32> %a2) {
  ; CHECK: vpmaskmovd
  call void @llvm.x86.avx2.maskstore.d.256(i8* %a0, <8 x i32> %a1, <8 x i32> %a2)
  ret void
}
declare void @llvm.x86.avx2.maskstore.d.256(i8*, <8 x i32>, <8 x i32>) nounwind


define <4 x i32> @test_x86_avx2_psllv_d(<4 x i32> %a0, <4 x i32> %a1) {
  ; CHECK: vpsllvd
  %res = call <4 x i32> @llvm.x86.avx2.psllv.d(<4 x i32> %a0, <4 x i32> %a1) ; <<4 x i32>> [#uses=1]
  ret <4 x i32> %res
}
declare <4 x i32> @llvm.x86.avx2.psllv.d(<4 x i32>, <4 x i32>) nounwind readnone


define <8 x i32> @test_x86_avx2_psllv_d_256(<8 x i32> %a0, <8 x i32> %a1) {
  ; CHECK: vpsllvd
  %res = call <8 x i32> @llvm.x86.avx2.psllv.d.256(<8 x i32> %a0, <8 x i32> %a1) ; <<8 x i32>> [#uses=1]
  ret <8 x i32> %res
}
declare <8 x i32> @llvm.x86.avx2.psllv.d.256(<8 x i32>, <8 x i32>) nounwind readnone


define <2 x i64> @test_x86_avx2_psllv_q(<2 x i64> %a0, <2 x i64> %a1) {
  ; CHECK: vpsllvq
  %res = call <2 x i64> @llvm.x86.avx2.psllv.q(<2 x i64> %a0, <2 x i64> %a1) ; <<2 x i64>> [#uses=1]
  ret <2 x i64> %res
}
declare <2 x i64> @llvm.x86.avx2.psllv.q(<2 x i64>, <2 x i64>) nounwind readnone


define <4 x i64> @test_x86_avx2_psllv_q_256(<4 x i64> %a0, <4 x i64> %a1) {
  ; CHECK: vpsllvq
  %res = call <4 x i64> @llvm.x86.avx2.psllv.q.256(<4 x i64> %a0, <4 x i64> %a1) ; <<4 x i64>> [#uses=1]
  ret <4 x i64> %res
}
declare <4 x i64> @llvm.x86.avx2.psllv.q.256(<4 x i64>, <4 x i64>) nounwind readnone


define <4 x i32> @test_x86_avx2_psrlv_d(<4 x i32> %a0, <4 x i32> %a1) {
  ; CHECK: vpsrlvd
  %res = call <4 x i32> @llvm.x86.avx2.psrlv.d(<4 x i32> %a0, <4 x i32> %a1) ; <<4 x i32>> [#uses=1]
  ret <4 x i32> %res
}
declare <4 x i32> @llvm.x86.avx2.psrlv.d(<4 x i32>, <4 x i32>) nounwind readnone


define <8 x i32> @test_x86_avx2_psrlv_d_256(<8 x i32> %a0, <8 x i32> %a1) {
  ; CHECK: vpsrlvd
  %res = call <8 x i32> @llvm.x86.avx2.psrlv.d.256(<8 x i32> %a0, <8 x i32> %a1) ; <<8 x i32>> [#uses=1]
  ret <8 x i32> %res
}
declare <8 x i32> @llvm.x86.avx2.psrlv.d.256(<8 x i32>, <8 x i32>) nounwind readnone


define <2 x i64> @test_x86_avx2_psrlv_q(<2 x i64> %a0, <2 x i64> %a1) {
  ; CHECK: vpsrlvq
  %res = call <2 x i64> @llvm.x86.avx2.psrlv.q(<2 x i64> %a0, <2 x i64> %a1) ; <<2 x i64>> [#uses=1]
  ret <2 x i64> %res
}
declare <2 x i64> @llvm.x86.avx2.psrlv.q(<2 x i64>, <2 x i64>) nounwind readnone


define <4 x i64> @test_x86_avx2_psrlv_q_256(<4 x i64> %a0, <4 x i64> %a1) {
  ; CHECK: vpsrlvq
  %res = call <4 x i64> @llvm.x86.avx2.psrlv.q.256(<4 x i64> %a0, <4 x i64> %a1) ; <<4 x i64>> [#uses=1]
  ret <4 x i64> %res
}
declare <4 x i64> @llvm.x86.avx2.psrlv.q.256(<4 x i64>, <4 x i64>) nounwind readnone


define <4 x i32> @test_x86_avx2_psrav_d(<4 x i32> %a0, <4 x i32> %a1) {
  ; CHECK: vpsravd
  %res = call <4 x i32> @llvm.x86.avx2.psrav.d(<4 x i32> %a0, <4 x i32> %a1) ; <<4 x i32>> [#uses=1]
  ret <4 x i32> %res
}
declare <4 x i32> @llvm.x86.avx2.psrav.d(<4 x i32>, <4 x i32>) nounwind readnone


define <8 x i32> @test_x86_avx2_psrav_d_256(<8 x i32> %a0, <8 x i32> %a1) {
  ; CHECK: vpsravd
  %res = call <8 x i32> @llvm.x86.avx2.psrav.d.256(<8 x i32> %a0, <8 x i32> %a1) ; <<8 x i32>> [#uses=1]
  ret <8 x i32> %res
}
declare <8 x i32> @llvm.x86.avx2.psrav.d.256(<8 x i32>, <8 x i32>) nounwind readnone

; This is checked here because the execution dependency fix pass makes it hard to test in AVX mode since we don't have 256-bit integer instructions
define void @test_x86_avx_storeu_dq_256(i8* %a0, <32 x i8> %a1) {
  ; CHECK: vmovdqu
  ; add operation forces the execution domain.
  %a2 = add <32 x i8> %a1, <i8 1, i8 1, i8 1, i8 1, i8 1, i8 1, i8 1, i8 1, i8 1, i8 1, i8 1, i8 1, i8 1, i8 1, i8 1, i8 1, i8 1, i8 1, i8 1, i8 1, i8 1, i8 1, i8 1, i8 1, i8 1, i8 1, i8 1, i8 1, i8 1, i8 1, i8 1, i8 1>
  call void @llvm.x86.avx.storeu.dq.256(i8* %a0, <32 x i8> %a2)
  ret void
}
declare void @llvm.x86.avx.storeu.dq.256(i8*, <32 x i8>) nounwind

define <2 x double> @test_x86_avx2_gather_d_pd(<2 x double> %a0, i8* %a1,
                     <4 x i32> %idx, <2 x double> %mask) {
  ; CHECK: vgatherdpd
  %res = call <2 x double> @llvm.x86.avx2.gather.d.pd(<2 x double> %a0,
                            i8* %a1, <4 x i32> %idx, <2 x double> %mask, i8 2) ;
  ret <2 x double> %res
}
declare <2 x double> @llvm.x86.avx2.gather.d.pd(<2 x double>, i8*,
                      <4 x i32>, <2 x double>, i8) nounwind readonly

define <4 x double> @test_x86_avx2_gather_d_pd_256(<4 x double> %a0, i8* %a1,
                     <8 x i32> %idx, <4 x double> %mask) {
  ; CHECK: vgatherdpd
  %res = call <4 x double> @llvm.x86.avx2.gather.d.pd.256(<4 x double> %a0,
                            i8* %a1, <8 x i32> %idx, <4 x double> %mask, i8 2) ;
  ret <4 x double> %res
}
declare <4 x double> @llvm.x86.avx2.gather.d.pd.256(<4 x double>, i8*,
                      <8 x i32>, <4 x double>, i8) nounwind readonly

define <2 x double> @test_x86_avx2_gather_q_pd(<2 x double> %a0, i8* %a1,
                     <2 x i64> %idx, <2 x double> %mask) {
  ; CHECK: vgatherqpd
  %res = call <2 x double> @llvm.x86.avx2.gather.q.pd(<2 x double> %a0,
                            i8* %a1, <2 x i64> %idx, <2 x double> %mask, i8 2) ;
  ret <2 x double> %res
}
declare <2 x double> @llvm.x86.avx2.gather.q.pd(<2 x double>, i8*,
                      <2 x i64>, <2 x double>, i8) nounwind readonly

define <4 x double> @test_x86_avx2_gather_q_pd_256(<4 x double> %a0, i8* %a1,
                     <4 x i64> %idx, <4 x double> %mask) {
  ; CHECK: vgatherqpd
  %res = call <4 x double> @llvm.x86.avx2.gather.q.pd.256(<4 x double> %a0,
                            i8* %a1, <4 x i64> %idx, <4 x double> %mask, i8 2) ;
  ret <4 x double> %res
}
declare <4 x double> @llvm.x86.avx2.gather.q.pd.256(<4 x double>, i8*,
                      <4 x i64>, <4 x double>, i8) nounwind readonly

define <4 x float> @test_x86_avx2_gather_d_ps(<4 x float> %a0, i8* %a1,
                     <4 x i32> %idx, <4 x float> %mask) {
  ; CHECK: vgatherdps
  %res = call <4 x float> @llvm.x86.avx2.gather.d.ps(<4 x float> %a0,
                            i8* %a1, <4 x i32> %idx, <4 x float> %mask, i8 2) ;
  ret <4 x float> %res
}
declare <4 x float> @llvm.x86.avx2.gather.d.ps(<4 x float>, i8*,
                      <4 x i32>, <4 x float>, i8) nounwind readonly

define <8 x float> @test_x86_avx2_gather_d_ps_256(<8 x float> %a0, i8* %a1,
                     <8 x i32> %idx, <8 x float> %mask) {
  ; CHECK: vgatherdps
  %res = call <8 x float> @llvm.x86.avx2.gather.d.ps.256(<8 x float> %a0,
                            i8* %a1, <8 x i32> %idx, <8 x float> %mask, i8 2) ;
  ret <8 x float> %res
}
declare <8 x float> @llvm.x86.avx2.gather.d.ps.256(<8 x float>, i8*,
                      <8 x i32>, <8 x float>, i8) nounwind readonly

define <4 x float> @test_x86_avx2_gather_q_ps(<4 x float> %a0, i8* %a1,
                     <2 x i64> %idx, <4 x float> %mask) {
  ; CHECK: vgatherqps
  %res = call <4 x float> @llvm.x86.avx2.gather.q.ps(<4 x float> %a0,
                            i8* %a1, <2 x i64> %idx, <4 x float> %mask, i8 2) ;
  ret <4 x float> %res
}
declare <4 x float> @llvm.x86.avx2.gather.q.ps(<4 x float>, i8*,
                      <2 x i64>, <4 x float>, i8) nounwind readonly

define <8 x float> @test_x86_avx2_gather_q_ps_256(<8 x float> %a0, i8* %a1,
                     <4 x i64> %idx, <8 x float> %mask) {
  ; CHECK: vgatherqps
  %res = call <8 x float> @llvm.x86.avx2.gather.q.ps.256(<8 x float> %a0,
                            i8* %a1, <4 x i64> %idx, <8 x float> %mask, i8 2) ;
  ret <8 x float> %res
}
declare <8 x float> @llvm.x86.avx2.gather.q.ps.256(<8 x float>, i8*,
                      <4 x i64>, <8 x float>, i8) nounwind readonly
